{
    "_links": {
        "self": {
            "href": "http:\/\/default\/events\/example-event?_format=hal_json"
        },
        "type": {
            "href": "http:\/\/drupal.org\/rest\/type\/node\/event"
        },
        "http:\/\/drupal.org\/rest\/relation\/node\/event\/field_event_department": [
            {
                "href": "http:\/\/default\/node\/108?_format=hal_json"
            }
        ],
        "http:\/\/drupal.org\/rest\/relation\/node\/event\/field_event_image": [
            {
                "href": "http:\/\/default\/sites\/default\/files\/sky-clouds-garden-school_0_2.jpg"
            }
        ]
    },
    "nid": [
        {
            "value": 123
        }
    ],
    "uuid": [
        {
            "value": "2f7a3cd5-9a9a-4df6-9e65-fec1dd56c806"
        }
    ],
    "vid": [
        {
            "value": 65
        }
    ],
    "type": [
        {
            "target_id": "event"
        }
    ],
    "revision_timestamp": [
        {
            "value": "2018-02-27T19:10:10+00:00",
            "format": "Y-m-d\\TH:i:sP"
        }
    ],
    "_embedded": {
        "http:\/\/drupal.org\/rest\/relation\/node\/event\/field_event_department": [
            {
                "_links": {
                    "self": {
                        "href": "http:\/\/default\/node\/108?_format=hal_json"
                    },
                    "type": {
                        "href": "http:\/\/drupal.org\/rest\/type\/node\/department"
                    }
                },
                "uuid": [
                    {
                        "value": "607ab34f-48a3-463b-b184-07197b4572e3"
                    }
                ]
            }
        ],
        "http:\/\/drupal.org\/rest\/relation\/node\/event\/field_event_image": [
            {
                "_links": {
                    "self": {
                        "href": "http:\/\/default\/sites\/default\/files\/sky-clouds-garden-school_0_2.jpg"
                    },
                    "type": {
                        "href": "http:\/\/drupal.org\/rest\/type\/file\/file"
                    }
                },
                "uuid": [
                    {
                        "value": "7b58c9c2-9f77-463f-bcc5-71eb00d53903"
                    }
                ],
                "alt": "Clouds",
                "title": "",
                "width": "1920",
                "height": "1315"
            }
        ]
    },
    "status": [
        {
            "value": true
        }
    ],
    "title": [
        {
            "value": "Example Event"
        }
    ],
    "created": [
        {
            "value": "2018-02-10T00:22:30+00:00",
            "format": "Y-m-d\\TH:i:sP"
        }
    ],
    "changed": [
        {
            "value": "2018-02-27T19:10:10+00:00",
            "format": "Y-m-d\\TH:i:sP"
        }
    ],
    "promote": [
        {
            "value": true
        }
    ],
    "sticky": [
        {
            "value": false
        }
    ],
    "revision_translation_affected": [
        {
            "value": true
        }
    ],
    "body": [
        {
            "value": "<p>Lorem ipsum dolor sit amet, consetetur sadipscing elitr, sed diam nonumy eirmod tempor invidunt ut labore et dolore magna aliquyam erat, sed diam voluptua. At vero eos et accusam et justo duo dolores et ea rebum. Stet clita kasd gubergren, no sea takimata sanctus est Lorem ipsum dolor sit amet. Lorem ipsum dolor sit amet, consetetur sadipscing elitr, sed diam nonumy eirmod tempor invidunt ut labore et dolore magna aliquyam erat, sed diam voluptua. At vero eos et accusam et justo duo dolores et ea rebum. Stet clita kasd gubergren, no sea takimata sanctus est Lorem ipsum dolor sit amet. Lorem ipsum dolor sit amet, consetetur sadipscing elitr, sed diam nonumy eirmod tempor invidunt ut labore et dolore magna aliquyam erat, sed diam voluptua. At vero eos et accusam et justo duo dolores et ea rebum. Stet clita kasd gubergren, no sea takimata sanctus est Lorem ipsum dolor sit amet.<\/p>\r\n",
            "format": "rich_text",
            "summary": ""
        }
    ],
    "field_events_event_map": [
        {
            "name": null,
            "lat": "40.0814132",
            "lon": "-75.3987344",
            "zoom": "14",
            "type": "roadmap",
            "width": null,
            "height": "300px",
            "marker": 1,
            "controls": 1,
            "infowindow": ""
        }
    ],
    "field_event_date": [
        {
            "value": "2019-02-01T12:00:00",
            "end_value": "2019-02-01T12:00:00"
        }
    ],
    "field_event_directions": [
        {
            "uri": "https:\/\/maps.google.com?daddr=CA%2BBC%2BKelowna%2BV1W+2Z2%2B4024+Belmont+Rd%2BWorldwide+Clinical+Trials%2C+Inc",
            "title": "Get directions",
            "options": []
        }
    ],
    "field_event_featured": [
        {
            "value": false
        }
    ],
    "field_event_location": [
        {
            "langcode": "",
            "country_code": "CA",
            "administrative_area": "BC",
            "locality": "Kelowna",
            "dependent_locality": null,
            "postal_code": "V1W 2Z2",
            "sorting_code": null,
            "address_line1": "4024 Belmont Rd",
            "address_line2": "",
            "organization": "Worldwide Clinical Trials, Inc",
            "given_name": null,
            "additional_name": null,
            "family_name": null
        }
    ]
}
